type,value,
base_theme,2,
theme_boost_header_color,-15856114,
theme_text_header_1_line,-3361408,
theme_text_header_2_line,-3361408,
theme_statuses_color,-16777216,
theme_link_color,-2448096,
theme_icons_color,-2448096,
pref_color_background,-16777216,
pref_color_navigation_bar,true,
pref_color_status_bar,true,
theme_accent,-2448096,
theme_text_color,-3361408,
theme_primary,-16382458,
